{
  "compilerOptions": {
    "target": "ES6",
    // This must be specified if "paths" is set
    "baseUrl": ".",
    // Relative to "baseUrl"
    "paths": {
      "*": [
        "*",
        "src/*",
        "assets/*"
      ]
    },
    "exclude": ["node_modules", "./src"]
  }
}