<?xml version="1.0" encoding="UTF-8"?>
<svg width="30px" height="33px" viewBox="0 0 30 33" version="1.1" xmlns="http://www.w3.org/2000/svg" xmlns:xlink="http://www.w3.org/1999/xlink">
    <!-- Generator: Sketch 47.1 (45422) - http://www.bohemiancoding.com/sketch -->
    <title>Group 2</title>
    <desc>Created with Sketch.</desc>
    <defs></defs>
    <g id="Page-1" stroke="none" stroke-width="1" fill="none" fill-rule="evenodd">
        <g id="Group-2" transform="translate(-9.000000, -3.000000)" fill-rule="nonzero" fill="#818181">
            <g id="Group-3" transform="translate(17.340570, 18.340570) rotate(-45.000000) translate(-17.340570, -18.340570) translate(4.475727, 6.682143)">
                <path d="M16.8012562,16.1544504 C14.5157606,16.1544504 12.2345443,15.3689635 10.4937901,13.7941419 C7.01660201,10.6483465 7.01660201,5.53114332 10.4937901,2.38536482 C13.9709781,-0.760430597 19.6272511,-0.760430597 23.1044205,2.38536482 C26.5816085,5.53116024 26.5816085,10.6483634 23.1044205,13.7941419 C21.3722136,15.3689635 19.0867255,16.1544504 16.8012187,16.1544504 L16.8012562,16.1544504 Z M16.8012562,2.30061872 C15.1626781,2.30061872 13.5198468,2.8666294 12.2728487,3.99480298 C9.77455436,6.25499793 9.77455436,9.92828215 12.2728487,12.188494 C14.771143,14.448689 18.831388,14.448689 21.329701,12.188494 C23.8279954,9.92829907 23.8279954,6.25501485 21.329701,3.99480298 C20.0826804,2.86277823 18.4441061,2.30061872 16.8012936,2.30061872 L16.8012562,2.30061872 Z M10.0086263,21.2023291 L2.30944703,14.2369185 C1.77744267,13.7556167 1.77744267,12.9701298 2.30944703,12.4888279 C2.8414514,12.0075261 3.70968513,12.0075261 4.2416895,12.4888279 L11.9409024,19.454242 C12.4729068,19.9355438 12.4729068,20.7210307 11.9409024,21.2023325 C11.4131512,21.6836343 10.5406643,21.6836343 10.0086599,21.2023325 L10.0086263,21.2023291 Z" id="Shape"></path>
                <path d="M0.398492675,22.9311604 C-0.12925856,22.4537064 -0.12925856,21.6682229 0.398492675,21.1869211 L10.0256463,12.4772812 C10.5533975,11.9998272 11.4216275,11.9998272 11.9536319,12.4772812 C12.4813831,12.9547352 12.4813831,13.7402187 11.9536319,14.2215205 L2.32650445,22.9311604 C1.79875321,23.4086144 0.930523226,23.4086144 0.398518859,22.9311604 L0.398492675,22.9311604 Z" id="Shape"></path>
            </g>
            <g id="Group" transform="translate(29.701624, 17.701624) rotate(-315.000000) translate(-29.701624, -17.701624) translate(16.836781, 5.532590)">
                <path d="M25.3261883,22.9843421 C24.7984371,23.461942 23.9302071,23.461942 23.3982027,22.9843421 L13.7752499,14.2720059 C13.2474987,13.7944059 13.2474987,13.0086823 13.7752499,12.5272334 C14.3030011,12.0496334 15.1712311,12.0496334 15.7032355,12.5272334 L25.3261883,21.2395458 C25.8539395,21.7209948 25.8539395,22.5028694 25.3261883,22.9843184 L25.3261883,22.9843421 Z" id="Shape"></path>
                <path d="M25.3659907,14.4156311 L25.3659907,21.8453514 C25.3659907,22.5232329 24.7531207,23.077863 24.004057,23.077863 C23.2549932,23.077863 22.6421232,22.5232329 22.6421232,21.8453514 L22.6421232,14.4156311 C22.6421232,13.7377495 23.2549932,13.1831195 24.004057,13.1831195 C24.7531207,13.1831195 25.3659907,13.7377495 25.3659907,14.4156311 Z" id="Shape"></path>
                <path d="M15.7705576,23.7608316 L23.9804494,23.7608316 C24.7295131,23.7608316 25.3423831,23.2062015 25.3423831,22.52832 C25.3423831,21.8504385 24.7295131,21.2958084 23.9804494,21.2958084 L15.7705576,21.2958084 C15.0214939,21.2958084 14.4086239,21.8504385 14.4086239,22.52832 C14.4086239,23.2062015 15.0214939,23.7608316 15.7705576,23.7608316 Z" id="Shape"></path>
                <path d="M15.2218499,2.36487899 C13.5364574,0.839646378 11.2977837,0 8.91438377,0 C6.53100256,0 4.29231014,0.839646378 2.60691768,2.36487899 C-0.780891009,5.43075024 -0.866013503,10.3684911 2.34729893,13.5306677 C3.74328015,13.9658986 5.27119825,13.9543416 6.65867321,13.4921517 C5.82874385,13.210985 5.05414636,12.7680521 4.38594825,12.167204 C1.88765392,9.90631814 1.88765392,6.23191103 4.38594825,3.97100825 C5.59466448,2.87715418 7.2034482,2.27245374 8.91435571,2.27245374 C10.6252632,2.27245374 12.2340694,2.87715418 13.4427632,3.97100825 C14.6514794,5.06486232 15.3196775,6.52076618 15.3196775,8.0690892 C15.3196775,9.61741221 14.6514794,11.0733364 13.4427632,12.1671701 C12.7234901,12.818092 11.8722838,13.2802826 10.9700026,13.5575976 C10.89765,13.6269264 10.825297,13.6962551 10.7529444,13.7617322 C9.57827563,14.8247742 8.15675691,15.5296155 6.65011196,15.8724069 C7.39066195,16.0457288 8.15249256,16.1343155 8.91432691,16.1343155 C11.1998225,16.1343155 13.4810387,15.3485885 15.221793,13.7732855 C16.9071855,12.2480529 17.8350005,10.2221164 17.8350005,8.06520672 C17.8350005,5.90829706 16.9071855,3.89007877 15.221793,2.36484616 L15.2218499,2.36487899 Z M9.67613575,13.8272445 L9.62516352,13.8272445 L9.67613575,13.8272445 Z M8.11855803,13.8194924 L8.19501649,13.8194924 L8.11855803,13.8194924 Z M9.83356341,13.811808 L9.75710495,13.811808 L9.83356341,13.811808 Z M9.94853072,13.7925463 L9.89755849,13.7925463 L9.94853072,13.7925463 Z" id="Shape"></path>
            </g>
        </g>
    </g>
</svg>