<?xml version="1.0" encoding="UTF-8"?>
<svg width="33px" height="42px" viewBox="0 0 33 42" version="1.1" xmlns="http://www.w3.org/2000/svg" xmlns:xlink="http://www.w3.org/1999/xlink">
    <!-- Generator: Sketch 47.1 (45422) - http://www.bohemiancoding.com/sketch -->
    <title>密码 (1)</title>
    <desc>Created with Sketch.</desc>
    <defs></defs>
    <g id="Page-1" stroke="none" stroke-width="1" fill="none" fill-rule="evenodd">
        <g id="密码-(1)" fill-rule="nonzero" fill="#494949">
            <path d="M3.73457856,17 L29.2654214,17 C30.2951499,17 31.2098886,17.4234807 31.8956836,18.114643 C32.5825145,18.8078966 33,19.7311891 33,20.7705467 L33,38.270233 C33,39.2688109 32.5825145,40.2318374 31.8956836,40.9240453 L31.8956836,40.9240453 C31.2098886,41.5775649 30.2951499,42 29.2654214,42 L3.73457856,42 C2.70588605,42 1.75178151,41.5775649 1.10431643,40.9240453 C0.417485481,40.2318374 0,39.3074993 0,38.270233 L0,20.7705467 C0,19.7311891 0.418521425,18.8078966 1.10431643,18.114643 L1.10431643,18.114643 L1.10431643,18.114643 C1.79011144,17.4245263 2.70588605,17 3.73457856,17 L3.73457856,17 Z M29.2643855,19.0400268 L3.73457856,19.0400268 C3.23836132,19.0400268 2.8198399,19.2303317 2.51423638,19.5387929 L2.51423638,19.5387929 C2.20966881,19.8472542 2.01905509,20.3094232 2.01905509,20.7715923 L2.01905509,38.2712786 C2.01905509,38.7313564 2.20966881,39.1558827 2.51423638,39.464344 C2.8198399,39.7717596 3.27669126,39.9641558 3.73457856,39.9641558 L29.2654214,39.9641558 C29.7233087,39.9641558 30.1439021,39.7717596 30.4857636,39.464344 L30.4857636,39.464344 C30.7924031,39.1558827 30.9819809,38.732402 30.9819809,38.2712786 L30.9819809,20.7705467 C30.9819809,20.3094232 30.7913671,19.8462085 30.4857636,19.5377473 C30.1428661,19.2303317 29.7233087,19.0400268 29.2643855,19.0400268 L29.2643855,19.0400268 Z" id="Shape"></path>
            <path d="M29,12.0871751 C29,12.6160082 28.5494011,13.0698806 27.9866621,13.0698806 C27.4249427,13.0698806 27.0141025,12.6160082 27.0141025,12.0871751 C27.0141025,9.29206075 25.8886246,6.76187645 24.0892872,4.94844079 C22.2501911,3.13603199 19.7749554,2.00237799 17.0010195,2.00237799 C14.2250446,2.00237799 11.7131085,3.13603199 9.91275168,4.94844079 C8.11239487,6.76187645 6.98793645,9.29206075 6.98793645,12.0871751 L6.98793645,18.0172945 C6.98793645,18.5461277 6.53733752,19 6.01231841,19 C5.45059893,19 5,18.5471545 5,18.0172945 L5,12.0871751 C5,8.76322758 6.34975788,5.74117711 8.52425452,3.55088364 C10.7007901,1.36059017 13.7000255,0 17.0010195,0 C20.300994,0 23.3012488,1.35956331 25.4767649,3.55088364 C27.6502421,5.74220397 29,8.76425445 29,12.0871751 L29,12.0871751 Z" id="Shape"></path>
        </g>
    </g>
</svg>