<?xml version="1.0" encoding="UTF-8"?>
<svg width="30px" height="35px" viewBox="0 0 30 35" version="1.1" xmlns="http://www.w3.org/2000/svg" xmlns:xlink="http://www.w3.org/1999/xlink">
    <!-- Generator: Sketch 47.1 (45422) - http://www.bohemiancoding.com/sketch -->
    <title>我的</title>
    <desc>Created with Sketch.</desc>
    <defs></defs>
    <g id="Page-1" stroke="none" stroke-width="1" fill="none" fill-rule="evenodd">
        <g id="我的" fill-rule="nonzero" fill="#FFFFFF">
            <path d="M9.53496608,22.49997 C9.52716255,22.4934145 9.52145845,22.48534 9.51345685,22.4789443 C6.8621167,20.3632587 5.73084182,18.1973672 5.73084182,15.2370143 C5.73084182,14.5631512 5.18962506,14.0168416 4.52169,14.0168416 C3.85375494,14.0168416 3.31249858,14.5631912 3.31249858,15.2370143 C3.31249858,18.4899289 4.47700785,21.1369342 6.95243175,23.4726306 C3.18482957,26.4526501 1.09332372,29.5070193 0.071179471,33.4698125 C-0.0968936129,34.1220103 0.290431084,34.7885184 0.936738077,34.9581234 C1.0390951,34.9847454 1.14141252,34.9978564 1.24218507,34.9978564 C1.77948023,34.9978564 2.26991458,34.6336234 2.41160621,34.0847155 C3.38578049,30.3071567 5.53333711,27.4477354 9.59184871,24.5233582 C10.1354422,24.1317037 10.2613682,23.3697004 9.87329094,22.8213521 C9.77949004,22.688722 9.66350655,22.5819944 9.53496608,22.49997 Z" id="Shape"></path>
            <path d="M29.9257219,33.4658552 C28.8934766,29.5188512 26.8318778,26.4897849 23.1471436,23.5600913 C25.6796086,21.2244748 26.8704993,18.5485291 26.8704993,15.2370543 C26.8704993,14.5631911 26.3292825,14.0168815 25.6613475,14.0168815 C24.9934124,14.0168815 24.4521561,14.5632311 24.4521561,15.2370543 C24.4521561,18.1959681 23.2699403,20.4428847 20.6257303,22.5122417 C20.4603508,22.5983433 20.3102615,22.7193413 20.1948326,22.8827105 C19.8067156,23.4310587 19.9326813,24.1930621 20.4762748,24.5847166 C24.5245665,27.5019387 26.5850959,30.2553119 27.5876323,34.0886729 C27.7305122,34.6360218 28.2201543,34.9978564 28.755865,34.9978564 C28.8578259,34.9978564 28.9617278,34.9847454 29.0652336,34.9569642 C29.710788,34.7849208 30.0961321,34.1176532 29.9257219,33.4658552 Z" id="Shape"></path>
            <path d="M4.35670661,12.6840252 C5.01283734,12.5694229 5.45332115,11.9386906 5.34228914,11.2759399 C5.33638695,11.2415632 4.79164479,7.81872391 6.88917159,5.31418199 C8.47582436,3.41934668 11.1968417,2.45871801 14.976684,2.45871801 C18.7596555,2.45871801 21.4874069,3.42114547 23.0846757,5.31913863 C25.1940465,7.82543937 24.6666146,11.2475192 24.6614651,11.277299 C24.5484921,11.9414087 24.9901247,12.5723809 25.6486321,12.6865435 C25.7179133,12.6986553 25.7867983,12.7044114 25.854891,12.7044114 C26.4327091,12.7044114 26.9436228,12.2849758 27.0451876,11.6907786 C27.0762829,11.5070632 27.7788783,7.15277539 24.9492056,3.76451266 C22.8733068,1.27871805 19.5177868,0.0184125 14.9767236,0.0184125 C10.4360169,0.0184125 7.08679514,1.27851816 5.02115586,3.76399301 C2.20328748,7.15485402 2.92794674,11.5127394 2.96023037,11.6966147 C3.0762931,12.3587258 3.70291297,12.7996268 4.35670661,12.6840252 Z" id="Shape"></path>
            <path d="M10.6995942,11.8326425 C10.0316195,11.8326425 9.49040276,12.378992 9.49040276,13.0528552 L9.49040276,14.3544527 C9.49040276,15.0283158 10.0316195,15.5746254 10.6995942,15.5746254 C11.3675688,15.5746254 11.908746,15.0282758 11.908746,14.3544527 L11.908746,13.0528552 C11.908746,12.378992 11.3675292,11.8326425 10.6995942,11.8326425 Z" id="Shape"></path>
            <path d="M19.2983767,11.8326425 C18.6304021,11.8326425 18.0891853,12.378992 18.0891853,13.0528552 L18.0891853,14.3544527 C18.0891853,15.0283158 18.6304021,15.5746254 19.2983767,15.5746254 C19.9663514,15.5746254 20.5075286,15.0282758 20.5075286,14.3544527 L20.5075286,13.0528552 C20.5075682,12.378992 19.9663514,11.8326425 19.2983767,11.8326425 Z" id="Shape"></path>
            <path d="M17.9808469,16.9916646 C17.4266374,16.6240739 16.6807462,16.7807676 16.3099793,17.3338327 C16.3048694,17.3413875 15.7829436,18.1055894 14.9870623,18.1055894 C14.2132447,18.1055894 13.7314457,17.3977893 13.6991621,17.3487425 C13.3437249,16.7855244 12.604132,16.6137209 12.0408911,16.9674411 C11.473689,17.3231199 11.2993176,18.0756097 11.6520216,18.6479816 C12.0861675,19.3528237 13.2768602,20.5459748 14.9870623,20.5459748 C16.6890252,20.5459748 17.8946515,19.3617377 18.3386608,18.6618522 C18.6956428,18.0994336 18.5334718,17.3588557 17.9808469,16.9916646 Z" id="Shape"></path>
        </g>
    </g>
</svg>