<?xml version="1.0" standalone="no"?>
<!DOCTYPE svg PUBLIC "-//W3C//DTD SVG 1.1//EN" "http://www.w3.org/Graphics/SVG/1.1/DTD/svg11.dtd" >
<!--
2013-9-30: Created.
-->
<svg>
<metadata>
Created by iconfont
</metadata>
<defs>

<font id="iconfont" horiz-adv-x="1024" >
  <font-face
    font-family="iconfont"
    font-weight="500"
    font-stretch="normal"
    units-per-em="1024"
    ascent="896"
    descent="-128"
  />
    <missing-glyph />
    
    <glyph glyph-name="iconfontjiantou7" unicode="&#58935;" d="M806.975517 818.07393 729.024479 896 294.950553 461.951042 294.950553 461.951042 217.024483 384.000004 294.950553 306.073934 294.950553 306.073934 729.024479-127.999993 806.975517-50.073923 372.901591 384.000004Z"  horiz-adv-x="1024" />

    


  </font>
</defs></svg>
